ID,Tahun,Jenis Kapal,Bulan,Jumlah (Teu)
1,2017,Kontena,Januari,954
2,2017,Kargo Am,Januari,111
3,2017,Pukal Cecair,112
4,2017,Pukal Kering,39
5,2017,Lain-Lain,106
6,2017,Kontena,Februari,854
7,2017,Kargo Am,Februari,111
8,2017,Pukal Cecair,Februari,132
9,2017,Pukal Kering,Februari,35
10,2017,Lain-Lain,Februari,80
11,2017,Kontena,Mac,957
12,2017,Kargo Am,Mac,131
13,2017,Pukal Cecair,Mac,140
14,2017,Pukal Kering,Mac,46
15,2017,Lain-Lain,Mac,103
16,2017,Kontena,April,925
17,2017,Kargo Am,April,126
18,2017,Pukal Cecair,April,138
19,2017,Pukal Kering,April,40
20,2017,Lain-Lain,April,87
21,2017,Kontena,Mei,905
22,2017,Kargo Am,Mei,129
23,2017,Pukal Cecair,Mei,126
24,2017,Pukal Kering,Mei,36
25,2017,Lain-Lain,Mei,82
26,2017,Kontena,Jun,878
27,2017,Kargo Am,Jun,114
28,2017,Pukal Cecair,Jun,126
29,2017,Pukal Kering,Jun,42
30,2017,Lain-Lain,Jun,77
31,2017,Kontena,Julai,886
32,2017,Kargo Am,Julai,130
33,2017,Pukal Cecair,Julai,108
34,2017,Pukal Kering,Julai,40
35,2017,Lain-Lain,Julai,92
36,2017,Kontena,Ogos,898
37,2017,Kargo Am,Ogos,125
38,2017,Pukal Cecair,Ogos,127
39,2017,Pukal Kering,Ogos,45
40,2017,Lain-Lain,Ogos,84
41,2017,Kontena,September,857
42,2017,Kargo Am,September,117
43,2017,Pukal Cecair,September,132
44,2017,Pukal Kering,September,36
45,2017,Lain-Lain,September,75
46,2017,Kontena,Oktober,878
47,2017,Kargo Am,Oktober,132
48,2017,Pukal Cecair,Oktober,121
49,2017,Pukal Kering,Oktober,46
50,2017,Lain-Lain,Oktober,101
51,2017,Kontena,November,904
52,2017,Kargo Am,November,115
53,2017,Pukal Cecair,November,109
54,2017,Pukal Kering,November,39
55,2017,Lain-Lain,November,90
56,2017,Kontena,Disember,912
57,2017,Kargo Am,Disember,137
58,2017,Pukal Cecair,Disember,119
59,2017,Pukal Kering,Disember,40
60,2017,Lain-Lain,Disember,100
